…
Here are some rules of thumbs:

Only use integers values without a decimal place ❗

Some authors argue that values up to 50 mV have little meaning. Thus, if one value is 480 mV and the other is 490 mV there is no actual difference between the measurements. Keep in mind that the EH in soils ranges between -300 and +700 mV.

It is sometimes better to interpret the development of the EH (is it increasing/decreasing; is the decrease straightforward or stopped) than only consider a snapshot in time.

Don’t take individual readings from only one Pt electrode as valid. In most of our studies we employ at least three individual electrodes per depth. Some authors suggest to use even eight to ten electrodes per depth (Cogger et al. 1992).

Working with the mean and the standard deviation from a time series is good, but even better is to give information about the distribution of redox classes.

I will illustrate the bullet points above in the following. The data is taken from our study site at Polder Speicherkoog (see this post to see what the site features):

## # A tibble: 3,982 x 46
## # Groups:   day, month [3,982]
##    day        month year   time  ST10  MP10  ST20  MP20  ST30  MP30  ST60  MP60
##    <date>     <chr> <chr> <dbl> <dbl> <dbl> <dbl> <dbl> <dbl> <dbl> <dbl> <dbl>
##  1 2010-04-01 04    2010   12.5  6.70     0  6.81     0  6.76     0  6.18     0
##  2 2010-04-02 04    2010   36.5  6.42     0  6.29     0  6.31     0  6.15     0
##  3 2010-04-03 04    2010   60.5  6.47     0  6.35     0  6.30     0  6.08     0
##  4 2010-04-04 04    2010   84.5  7.45     0  6.82     0  6.56     0  6.09     0
##  5 2010-04-05 04    2010  108.   7.28     0  7.00     0  6.80     0  6.22     0
##  6 2010-04-06 04    2010  132.   7.80     0  7.17     0  6.91     0  6.32     0
##  7 2010-04-07 04    2010  156.   8.15     0  7.49     0  7.19     0  6.47     0
##  8 2010-04-08 04    2010  180.   8.55     0  7.95     0  7.58     0  6.65     0
##  9 2010-04-09 04    2010  204.   8.43     0  7.96     0  7.64     0  6.83     0
## 10 2010-04-10 04    2010  228.   8.67     0  8.22     0  7.81     0  6.96     0
## # ... with 3,972 more rows, and 34 more variables: ST100 <dbl>, MP100 <dbl>,
## #   ST150 <dbl>, MP150 <dbl>, EH10a <dbl>, EH10b <dbl>, EH10c <dbl>,
## #   EH20a <dbl>, EH20b <dbl>, EH20c <dbl>, EH30a <dbl>, EH30b <dbl>,
## #   EH30c <dbl>, EH60a <dbl>, EH60b <dbl>, EH60c <dbl>, EH100a <dbl>,
## #   EH100b <dbl>, EH100c <dbl>, EH150a <dbl>, EH150b <dbl>, EH150c <dbl>,
## #   WD <dbl>, WS <dbl>, AT <dbl>, RH <dbl>, AP <dbl>, pp <dbl>, SR <dbl>,
## #   wt <dbl>, EC <dbl>, BAT <dbl>, LT <dbl>, WT <dbl>
…
